legend:
  i,e,r,o,w : [output]
  i : number of glitch-search iterations before hit.
      A small one may indicate that glitch with these params is likely
      A large one may indicate glitch is unlikely and/or was a result of device instability from previous glitches
  e : ext offset
  r : repeat
  o : offset
  w : width

pass (bulky glitch):
  i= 10  e= 0 r= 5 o= -2.0  w= 11.3 : [112, 97, 115, 115]
  i= 10  e= 0 r= 5 o= -2.0  w= 10.5 : [112, 97, 115, 115]
  i= 5   e= 0 r= 5 o= -11.0 w= 13.0 : [239, 0, 0, 0, 104, 101, 108, 111, 112, 97, 115, 115]
  i= 16  e= 0 r= 5 o= -13.2 w= 11.0 : [33, 0, 0, 0, 104, 101, 108, 111, 112, 97, 115, 115]
  i= 21  e= 0 r= 5 o= -14.2 w= 11.6 : [235, 0, 32, 40, 1, 0, 0, 104, 101, 108, 111, 112, 97, 115, 115]
  i= 2   e= 0 r= 5 o= 36    w= 12   : [112, 97, 115, 115]
  i= 20  e= 0 r= 5 o= -7.0  w= 2.95 : [58, 0, 0, 0, 104, 101, 108, 111, 112, 97, 115, 115]
  i= 82  e= 0 r= 5 o= -4.8  w= 2.05 : [235, 2, 41, 8, 0, 128, 104, 101, 108, 111, 112, 97, 115, 115]
  i= 81  e= 0 r= 5 o= -4.8  w= 2.0  : [112, 97, 115, 115]
  i= 101 e= 0 r= 5 o= -5.0  w= 2.0  : [112, 97, 115, 115]
  i= 159 e= 0 r= 5 o= -5.4  w= 2.9 : [0, 0, 224, 104, 101, 108, 111, 112, 97, 115, 115]
  i= 40  e= 0 r= 5 o=  4.2  w= 2.95 : [112, 97, 115, 115]
  i= 53 e= 0 r= 5 o= 4.4 w= 2.6 : [42, 40, 1, 1, 0, 104, 101, 108, 111, 112, 97, 115, 115]
  i= 55 e= 0 r= 5 o= 4.4 w= 2.7 : [151, 34, 0, 0, 0, 0, 0, 104, 101, 108, 111, 112, 97, 115, 115]
  i= 56 e= 0 r= 5 o= 4.4 w= 2.75 : [235, 50, 33, 32, 5, 0, 104, 101, 108, 111, 112, 97, 115, 115]
  i= 57 e= 0 r= 5 o= 4.4 w= 2.8 : [34, 40, 0, 0, 1, 0, 104, 101, 108, 111, 112, 97, 115, 115]
  i= 58 e= 0 r= 5 o= 4.4 w= 2.85 : [42, 32, 0, 0, 104, 101, 108, 111, 112, 97, 115, 115]
  i= 73 e= 0 r= 5 o= 4.6 w= 2.6 : [50, 32, 32, 0, 1, 104, 101, 108, 111, 112, 97, 115, 115]
  i= 74 e= 0 r= 5 o= 4.6 w= 2.65 : [50, 32, 0, 0, 0, 0, 104, 101, 108, 111, 112, 97, 115, 115]
  i= 75 e= 0 r= 5 o= 4.6 w= 2.7 : [186, 42, 32, 0, 0, 0, 0, 0, 104, 101, 108, 111, 112, 97, 115, 115]
  i= 77 e= 0 r= 5 o= 4.6 w= 2.8 : [50, 32, 0, 0, 104, 101, 108, 111, 112, 97, 115, 115]
  i= 78 e= 0 r= 5 o= 4.6 w= 2.85 : [178, 64, 33, 13, 0, 5, 0, 0, 0, 255, 104, 101, 108, 111, 112, 97, 115, 115]
  i= 93 e= 0 r= 5 o= 4.8 w= 2.6 : [42, 0, 0, 104, 101, 108, 111, 112, 97, 115, 115]
  i= 97 e= 0 r= 5 o= 4.8 w= 2.8 : [34, 0, 32, 0, 104, 101, 108, 111, 112, 97, 115, 115]
  i= 99 e= 0 r= 5 o= 4.8 w= 2.9 : [153, 34, 32, 0, 0, 0, 0, 0, 0, 104, 101, 108, 111, 112, 97, 115, 115]
  i= 116 e= 0 r= 5 o= 5.0 w= 2.75 : [107, 50, 32, 32, 0, 0, 0, 0, 0, 128, 104, 101, 108, 111, 112, 97, 115, 115]
  i= 117 e= 0 r= 5 o= 5.0 w= 2.8 : [178, 42, 0, 0, 0, 104, 101, 108, 111, 112, 97, 115, 115]
  i= 118 e= 0 r= 5 o= 5.0 w= 2.85 : [42, 0, 0, 0, 104, 101, 108, 111, 112, 97, 115, 115]
  i= 119 e= 0 r= 5 o= 5.0 w= 2.9 : [50, 33, 0, 0, 104, 101, 108, 111, 112, 97, 115, 115]
  i= 133 e= 0 r= 5 o= 5.2 w= 2.6 : [50, 8, 0, 104, 101, 108, 111, 112, 97, 115, 115]

pass (single-cycle glitch):
  i= 107 e= 6 r= 1 o= 4.0 w= 2.6 : [112, 97, 115, 115]
  i= 108 e= 6 r= 1 o= 4.0 w= 2.7 : [34, 32, 0, 104, 101, 108, 111, 112, 97, 115, 115]
  i= 110 e= 6 r= 1 o= 4.0 w= 2.9 : [112, 97, 115, 115]
  i= 119 e= 6 r= 1 o= 4.2 w= 2.8 : [58, 32, 32, 8, 0, 0, 104, 101, 108, 111, 112, 97, 115, 115]
  i= 127 e= 6 r= 1 o= 4.4 w= 2.6 : [112, 97, 115, 115]
  i= 128 e= 6 r= 1 o= 4.4 w= 2.7 : [58, 32, 32, 0, 0, 104, 101, 108, 111, 112, 97, 115, 115]
  i= 129 e= 6 r= 1 o= 4.4 w= 2.8 : [58, 40, 0, 32, 0, 0, 104, 101, 108, 111, 112, 97, 115, 115]
  i= 147 e= 6 r= 1 o= 4.8 w= 2.6 : [112, 97, 115, 115]
  i= 149 e= 6 r= 1 o= 4.8 w= 2.8 : [112, 97, 115, 115]
  i= 160 e= 6 r= 1 o= 5.0 w= 2.9 : [58, 32, 0, 0, 104, 101, 108, 111, 112, 97, 115, 115]
  i= 177 e= 6 r= 1 o= 5.4 w= 2.6 : [112, 97, 115, 115]

crash + pass:
  i= 13 e= 0 r= 5 o= -10.0 w= 2.1 : [50, 32, 8, 0, 104, 101, 108, 111, 112, 97, 115, 115]

near-miss:
  i= 2 e= 0 r= 5 o= -10.0 w= 2.05 : [235, 58, 32, 32, 40, 104, 101, 108, 111]
  i= 0  e= 0 r= 5 o= -10.0 w= 12.0 : [111 small dump; looks like something in memory just before "pass" string]
  i= 3 e= 0 r= 5 o= -10.0 w= 2.1 : [66, 1, 8, 0, 0, 104, 101, 108, 111]

  
weird:
  i= 1  e= 0 r= 5 o= -10.2 w= 12.4 : [186 ?? small dump]
  i= 12 e= 0 r= 5 o= -2.2  w= 10.0 : []
  i= 8  e= 0 r= 5 o= -1.8  w= 11.6 : [large dump]
  i= 67 e= 0 r= 5 o= -4.6  w= 2.3  : [large dump]

